{
    "apiKey": "AIzaSyDLXCS2Xr5MZ9bpXI9mLYNJR_MlRHjJCRU",
    "authDomain": "dev-lending-p2p.firebaseapp.com",
    "databaseURL": "https://dev-lending-p2p.firebaseio.com",
    "projectId": "dev-lending-p2p",
    "storageBucket": "dev-lending-p2p.appspot.com",
    "messagingSenderId": "215636270520"
}